<?xml version="1.0" encoding="utf-8"?>
<!-- Generator: Adobe Illustrator 15.1.0, SVG Export Plug-In . SVG Version: 6.00 Build 0)  -->
<!DOCTYPE svg PUBLIC "-//W3C//DTD SVG 1.1//EN" "http://www.w3.org/Graphics/SVG/1.1/DTD/svg11.dtd">
<svg version="1.1" id="Layer_1" xmlns="http://www.w3.org/2000/svg" xmlns:xlink="http://www.w3.org/1999/xlink" x="0px" y="0px"
	 width="92px" height="92px" viewBox="0 0 92 92" enable-background="new 0 0 92 92" xml:space="preserve">
<path fill="#E1802E" d="M46,0C20.572,0,0,20.572,0,46s20.572,46,46,46s46-20.572,46-46S71.428,0,46,0z M65.678,81.778V54.434
	l7.027-7.027c1.022,0.511,2.173,0.766,3.322,0.766c4.217,0,7.667-3.449,7.667-7.666c0-4.216-3.45-7.667-7.667-7.667
	c-4.216,0-7.666,3.451-7.666,7.667c0,1.15,0.256,2.3,0.767,3.322l-7.795,7.795c-0.511,0.511-0.767,1.15-0.767,1.789v30.793
	c-3.833,1.406-7.794,2.301-12.011,2.684V48.812c2.938-1.022,5.111-3.833,5.111-7.156c0-4.216-3.45-7.667-7.667-7.667
	s-7.667,3.451-7.667,7.667c0,3.322,2.173,6.133,5.111,7.156v38.077c-4.217-0.256-8.306-1.149-12.011-2.684V63.25
	c0-0.639-0.256-1.277-0.767-1.788l-4.601-4.601c0.512-1.021,0.768-2.172,0.768-3.322c0-4.217-3.45-7.667-7.667-7.667
	s-7.667,3.45-7.667,7.667s3.45,7.666,7.667,7.666c1.149,0,2.3-0.256,3.322-0.766l3.833,3.833v17.506
	C13.672,74.75,5.111,61.334,5.111,46c0-20.061,14.438-36.672,33.478-40.25v19.679h-3.45c-1.021-2.939-3.833-5.111-7.155-5.111
	c-4.217,0-7.667,3.45-7.667,7.667c0,4.216,3.45,7.667,7.667,7.667c3.322,0,6.134-2.172,7.155-5.111h6.006
	c1.405,0,2.556-1.149,2.556-2.555V5.239c0.767,0,1.533-0.127,2.3-0.127c4.728,0,9.2,0.766,13.417,2.299v10.861
	c-2.939,1.022-5.111,3.833-5.111,7.156c0,4.216,3.45,7.666,7.667,7.666c4.216,0,7.666-3.45,7.666-7.666
	c0-3.323-2.172-6.134-5.111-7.156V9.583C77.816,16.356,86.889,30.156,86.889,46C86.889,61.334,78.328,74.878,65.678,81.778z"/>
</svg>
